%YAML 1.1
%TAG !u! tag:unity3d.com,2011:
--- !u!1045 &1
EditorBuildSettings:
  m_ObjectHideFlags: 0
  serializedVersion: 2
  m_Scenes:
  - enabled: 1
    path: Assets/Scenes/Levels/MainMenu.unity
    guid: 8722e2381208c6b43962fc5444fb4d7b
  - enabled: 1
    path: Assets/Scenes/TestScenes/ProjectileTest.unity
    guid: dd728139c2dfd6540a139de08df877db
  m_configObjects: {}
